{
  "dependencies": {
    "storage1": {
      "resourceId": "/subscriptions/[parameters('subscriptionId')]/resourceGroups/[parameters('resourceGroupName')]/providers/Microsoft.Storage/storageAccounts/sfrazurefunctionstorage",
      "type": "storage.azure",
      "connectionId": "sfrazurefunctionstorage_STORAGE",
      "secretStore": null
    }
  }
}